Tallest Buildings
…
Mean Height

Now lets try to find the mean of the buildings in each city. We first do this by grouping the cities with the Height. It is important to recognize that the label is currently Height..ft. for the building height in feet. To make this easy, lets just call it HeightFeet

TB=rename(TB, HeightFeet=Height..ft.)

This column is now labeled HeightFeet.

TB%>%group_by(City)

## Source: local data frame [100 x 10]
## Groups: City [38]
## 
##     Rank                   Building.Name          City Country Height..m.
## *  <int>                          <fctr>         <chr>   <chr>      <dbl>
## 1      1                    Burj Khalifa         Dubai    (AE)      828.0
## 2      2                  Shanghai Tower      Shanghai    (CN)      632.0
## 3      3        Makkah Royal Clock Tower         Mecca    (SA)      601.0
## 4      4          One World Trade Center New York City    (US)      541.3
## 5      5                      TAIPEI 101        Taipei    (TW)      508.0
## 6      6 Shanghai World Financial Center      Shanghai    (CN)      492.0
## 7      7   International Commerce Centre     Hong Kong    (CN)      484.0
## 8      8           Petronas Twin Tower 1  Kuala Lumpur    (MY)      451.9
## 9      8           Petronas Twin Tower 2  Kuala Lumpur    (MY)      451.9
## 10    10                    Zifeng Tower       Nanjing    (CN)      450.0
## # ... with 90 more rows, and 5 more variables: HeightFeet <fctr>,
## #   Floors <int>, Completed <int>, Material <fctr>, Use <fctr>
…
